   0   0.000098
   1   0.000081
   2   0.000074
   3   0.000088
   4   0.000105
   5   0.000092
   6   0.000075
   7   0.000086
   8   0.002579
   9   0.000075
  10   0.000091
  11   0.000077
  12   0.000092
  13   0.000090
  14   0.000079
  15   0.000165
  16   0.000108
  17   0.000101
  18   0.000081
  19   0.000084
  20   0.002914
  21   0.000075
  22   0.000092
  23   0.000076
  24   0.000092
  25   0.000088
  26   0.000095
  27   0.000093
  28   0.000090
  29   0.000088
