10
a0 proc_0=17 proc_1=24 proc_2=13 
a1 proc_0=13 proc_2=20 
a2 proc_0=8 proc_2=21 
a3 proc_0=10 proc_1=14 
a4 proc_0=17 proc_1=16 proc_2=17 
a5 proc_0=18 proc_1=22 
a6 proc_1=15 
a7 proc_0=16 proc_1=20 
a8 proc_1=9 
a9 proc_0=22 proc_1=25 proc_2=12 
